<svg viewBox="0 0 100 100" height="100%" width="100%">
	<path d="M 99.429637,28.808594 85.770954,2.734375 Q 85.185582,1.5625 83.819714,0.78125 82.453846,0 81.185539,0 H 18.745845 Q 17.477539,0 16.111671,0.78125 14.745803,1.5625 14.16043,2.734375 L 0.50174754,28.320312 q -0.58537213,1.171875 -0.48781011,2.734375 0.097562,1.5625 0.87805819,2.539063 L 47.721766,99.023437 Q 48.502262,100 49.575444,100 q 0.48781,0 0.97562,-0.244141 0.487811,-0.24414 0.878059,-0.732422 l 47.610266,-64.84375 q 1.560991,-2.246093 0.585372,-4.882812 -0.09756,-0.292969 -0.195124,-0.488281 z M 91.917362,28.125 H 75.234256 L 81.966035,8.8867188 Z M 56.1121,6.25 h 20.097776 l -6.243969,17.871094 z m 9.073268,21.875 H 36.209447 L 49.86813,8.3984375 Z M 30.648412,25.097656 24.404443,6.25 H 43.819285 Z M 66.453674,34.375 49.673006,82.421875 33.672835,34.375 Z M 42.648541,81.152344 9.0872054,34.375 H 27.136179 Z M 73.087891,34.375 H 91.136865 L 56.697472,81.25 Z M 18.355597,8.0078125 25.087377,28.125 H 7.7213371 Z" style="fill:#ffffff" />
</svg>
