<svg height="24" width="24" viewBox="0 0 24 24">
   <path d="M 16.583333,2.000001 16.45,2.025001 12,3.750001 7,2.000001 2.3,3.5833343 C 2.125,3.6416673 2,3.7916677 2,3.9833343 L 2,16.583333 C 2,16.816667 2.1833333,17 2.4166667,17 L 2.55,16.975 7,15.25 12,17 16.7,15.416667 c 0.175,-0.05833 0.3,-0.208334 0.3,-0.4 L 17,2.4166677 C 17,2.1833343 16.816667,2.000001 16.583333,2.000001 Z M 12,15.333333 7,13.575 7,3.6666677 l 5,1.7583333 0,9.908332 z"/>
   <path d="m 16,18.25 6,0 0,1.5 -6,0 0,-1.5 z"/>
</svg>
