PATH C:\Program Files (x86)\Windows Kits\8.1\bin\x86;D:\Qt\Qt5.4.0\5.4\winphone_arm\bin

C:\Qt\Qt5.4.0\5.4\winphone_arm\bin


C:\Qt\Qt5.4.0\5.4\winphone_x86\bin

C:\Qt\Qt5.4.0\5.4\winrt_x64\bin



C:\Qt\Qt5.4.0\5.4\winphone_x86\bin


C:\Qt\Qt5.4.0\5.4\winphone_arm\bin
C:\Qt\Qt5.4.0\5.4\winphone_x86\bin

